{
	"title" : "Projects",
	"services" : [
		{
			"title" : "XMATE",
			"description" : "An app to connect students globally in on place. Check it out at the link below 😉",
			"website" : "https://xmate.io"
		}
	]
}
